{
  "name": "api-client",
  "$schema": "../../node_modules/nx/schemas/project-schema.json",
  "projectType": "library",
  "sourceRoot": "libs/api-client/src",
  "prefix": "entscheidungsnavi",
  "targets": {
    "test": {
      "executor": "@nrwl/jest:jest",
      "outputs": ["{workspaceRoot}/coverage/libs/api-client"],
      "options": {
        "jestConfig": "libs/api-client/jest.config.ts",
        "passWithNoTests": true
      }
    },
    "lint": {
      "executor": "@nrwl/linter:eslint",
      "options": {
        "lintFilePatterns": ["libs/api-client/src/**/*.ts", "libs/api-client/src/**/*.html"]
      }
    }
  },
  "tags": []
}
