[
  {
    "_id": {
      "$oid": "62b1cad7c004d74ba1f68109"
    },
    "name": {
      "en": "German",
      "de": "Deutsch"
    },
    "createdAt": {
      "$date": "2022-06-21T13:42:47.799Z"
    },
    "updatedAt": {
      "$date": "2022-09-09T10:40:15.618Z"
    },
    "__v": 0,
    "color": "#000"
  },
  {
    "_id": {
      "$oid": "62b1cafcc004d74ba1f6810b"
    },
    "name": {
      "en": "English",
      "de": "Englisch"
    },
    "color": "#000",
    "createdAt": {
      "$date": "2022-06-21T13:43:24.436Z"
    },
    "updatedAt": {
      "$date": "2022-09-09T10:40:22.359Z"
    },
    "__v": 0
  }
]
